<svg width="22" height="22" viewBox="0 0 22 22" xmlns="http://www.w3.org/2000/svg">
<path fill="#555559" d="M21.9 2.2l-2.2-2.2-8.8 8.8-8.8-8.8-2.2 2.2 8.8 8.8-8.8 8.8 2.2 2.2 8.8-8.8 8.8 8.8 2.2-2.2-8.8-8.8 8.8-8.8z"/>
</svg>
