<svg xmlns="http://www.w3.org/2000/svg"
     viewBox="0 0 32 32" style="enable-background:new 0 0 32 32;">
<g id="Logo_1_">
  <path d="M28.06,10.29c0.02,0.27,0.02,0.53,0.02,0.8c0,8.22-6.26,17.71-17.71,17.71v0
		c-3.38,0-6.69-0.96-9.54-2.79c0.49,0.06,0.99,0.09,1.48,0.09c2.8,0,5.52-0.94,7.73-2.67c-2.66-0.05-5-1.79-5.81-4.32
		c0.93,0.18,1.89,0.14,2.81-0.11c-2.9-0.59-4.99-3.14-4.99-6.1c0-0.03,0-0.05,0-0.08c0.87,0.48,1.83,0.75,2.82,0.78
		c-2.73-1.83-3.58-5.47-1.93-8.31c3.16,3.89,7.82,6.25,12.83,6.5c-0.5-2.16,0.18-4.43,1.8-5.95c2.51-2.36,6.45-2.24,8.81,0.27
		c1.39-0.27,2.73-0.79,3.95-1.51c-0.46,1.44-1.44,2.66-2.74,3.44c1.23-0.15,2.44-0.48,3.57-0.98C30.33,8.31,29.28,9.4,28.06,10.29z"
  />
</g>
</svg>
